VIBRANT clinical data - merging CRFs data into wide tables
…
visits_crfs_merged <-
  visits_crfs_merged |> 
  filter(!(hiv_results == "Missing"  & nugent_done == "Missing" &
             if_all(-c(pid, visit_code, dfseq, hiv_results, nugent_done), is.na))) |> 
  distinct()

Code

visits_crfs_merged |> 
  mutate(uid = str_c(pid, "_", visit_code)) |> 
  dplyr::count(uid) |> 
  dplyr::filter(n > 1)

# A tibble: 97 × 2
   uid                n
   <chr>          <int>
 1 068100006_1000     2
 2 068100009_0000     2
 3 068100010_1100     2
 4 068100011_0000     2
 5 068100016_1100     2
 6 068100026_1200     2
 7 068100029_1100     2
 8 068100036_1511     2
 9 068100040_0000     2
10 068100040_1511     2
# ℹ 87 more rows

New sexual partner

Code

visits_crfs_merged |> 
  select(pid, visit_code, new_sex_partner)

# A tibble: 4,518 × 3
   pid       visit_code new_sex_partner
   <chr>     <chr>                <int>
 1 068100004 0000                    NA
 2 068100004 1500                     0
 3 068100004 2120                     0
 4 068100006 0000                    NA
 5 068100006 1500                     0
 6 068100006 2120                     0
 7 068100010 0000                    NA
 8 068100010 1500                    NA
 9 068100010 2120                    NA
10 068100011 0000                    NA
# ℹ 4,508 more rows
…
